…
Here we load a small example watershed included with the package, that
can be used to understand the inputs required:

``` r
data("example_watershed")
example_watershed
```

    ## Simple feature collection with 66 features and 14 fields
    ## Geometry type: POINT
    ## Dimension:     XY
    ## Bounding box:  xmin: 401430 ymin: 4671870 xmax: 402830 ymax: 4672570
    ## Projected CRS: WGS 84 / UTM zone 31N
    ## # A tibble: 66 × 15
    ##            geometry    id elevation slope aspect land_cover_type
    ##  *      <POINT [m]> <int>     <dbl> <dbl>  <dbl> <chr>          
    ##  1 (402630 4672570)     1      1162 11.3   79.2  wildland       
    ##  2 (402330 4672470)     2      1214 12.4   98.7  agriculture    
    ##  3 (402430 4672470)     3      1197 10.4  102.   wildland       
    ##  4 (402530 4672470)     4      1180  8.12  83.3  wildland       
    ##  5 (402630 4672470)     5      1164 13.9   96.8  wildland       
    ##  6 (402730 4672470)     6      1146 11.2    8.47 agriculture    
    ##  7 (402830 4672470)     7      1153  9.26 356.   agriculture    
    ##  8 (402230 4672370)     8      1237 14.5   75.1  wildland       
    ##  9 (402330 4672370)     9      1213 13.2   78.7  wildland       
    ## 10 (402430 4672370)    10      1198  8.56  75.6  agriculture    
    ## # ℹ 56 more rows
    ## # ℹ 9 more variables: forest <list>, soil <list>, state <list>,
    ## #   depth_to_bedrock <dbl>, bedrock_conductivity <dbl>, bedrock_porosity <dbl>,
    ## #   snowpack <dbl>, aquifer <dbl>, crop_factor <dbl>
…
    ## • Transpiration mode [Granier: 65, Sperry: 0, Sureau: 0]

    ## • Soil domains [buckets: 65, single: 0, dual: 0]

``` r
example_init
```

    ## Simple feature collection with 66 features and 14 fields
    ## Geometry type: POINT
    ## Dimension:     XY
    ## Bounding box:  xmin: 401430 ymin: 4671870 xmax: 402830 ymax: 4672570
    ## Projected CRS: WGS 84 / UTM zone 31N
    ## # A tibble: 66 × 15
    ##            geometry    id elevation slope aspect land_cover_type
    ##  *      <POINT [m]> <int>     <dbl> <dbl>  <dbl> <chr>          
    ##  1 (402630 4672570)     1      1162 11.3   79.2  wildland       
    ##  2 (402330 4672470)     2      1214 12.4   98.7  agriculture    
    ##  3 (402430 4672470)     3      1197 10.4  102.   wildland       
    ##  4 (402530 4672470)     4      1180  8.12  83.3  wildland       
    ##  5 (402630 4672470)     5      1164 13.9   96.8  wildland       
    ##  6 (402730 4672470)     6      1146 11.2    8.47 agriculture    
    ##  7 (402830 4672470)     7      1153  9.26 356.   agriculture    
    ##  8 (402230 4672370)     8      1237 14.5   75.1  wildland       
    ##  9 (402330 4672370)     9      1213 13.2   78.7  wildland       
    ## 10 (402430 4672370)    10      1198  8.56  75.6  agriculture    
    ## # ℹ 56 more rows
    ## # ℹ 9 more variables: forest <list>, soil <list>, state <list>,
    ## #   depth_to_bedrock <dbl>, bedrock_conductivity <dbl>, bedrock_porosity <dbl>,
    ## #   snowpack <dbl>, aquifer <dbl>, crop_factor <dbl>
…
    ## • Transpiration mode [Granier: 65, Sperry: 0, Sureau: 0]

    ## • Soil domains [buckets: 0, single: 65, dual: 0]

``` r
example_simplified
```

    ## Simple feature collection with 66 features and 14 fields
    ## Geometry type: POINT
    ## Dimension:     XY
    ## Bounding box:  xmin: 401430 ymin: 4671870 xmax: 402830 ymax: 4672570
    ## Projected CRS: WGS 84 / UTM zone 31N
    ## # A tibble: 66 × 15
    ##            geometry    id elevation slope aspect land_cover_type
    ##  *      <POINT [m]> <int>     <dbl> <dbl>  <dbl> <chr>          
    ##  1 (402630 4672570)     1      1162 11.3   79.2  wildland       
    ##  2 (402330 4672470)     2      1214 12.4   98.7  agriculture    
    ##  3 (402430 4672470)     3      1197 10.4  102.   wildland       
    ##  4 (402530 4672470)     4      1180  8.12  83.3  wildland       
    ##  5 (402630 4672470)     5      1164 13.9   96.8  wildland       
    ##  6 (402730 4672470)     6      1146 11.2    8.47 agriculture    
    ##  7 (402830 4672470)     7      1153  9.26 356.   agriculture    
    ##  8 (402230 4672370)     8      1237 14.5   75.1  wildland       
    ##  9 (402330 4672370)     9      1213 13.2   78.7  wildland       
    ## 10 (402430 4672370)    10      1198  8.56  75.6  agriculture    
    ## # ℹ 56 more rows
    ## # ℹ 9 more variables: forest <list>, soil <list>, state <list>,
    ## #   depth_to_bedrock <dbl>, bedrock_conductivity <dbl>, bedrock_porosity <dbl>,
    ## #   snowpack <dbl>, aquifer <dbl>, crop_factor <dbl>
…
Where `sf` is an object of class `sf`, analogous to those of functions
`*_spatial()`:

``` r
res_ws1$sf
```

    ## Simple feature collection with 66 features and 10 fields
    ## Geometry type: POINT
    ## Dimension:     XY
    ## Bounding box:  xmin: 401430 ymin: 4671870 xmax: 402830 ymax: 4672570
    ## Projected CRS: WGS 84 / UTM zone 31N
    ## # A tibble: 66 × 11
    ##            geometry state            aquifer snowpack summary  result outlet
    ##  *      <POINT [m]> <list>             <dbl>    <dbl> <list>   <list> <lgl> 
    ##  1 (402630 4672570) <spwbInpt [20]>   4.95       3.56 <dbl[…]> <NULL> FALSE 
    ##  2 (402330 4672470) <aspwbInp [4]>    0.0596     3.56 <dbl[…]> <NULL> FALSE 
    ##  3 (402430 4672470) <spwbInpt [20]>   0.299      3.56 <dbl[…]> <NULL> FALSE 
    ##  4 (402530 4672470) <spwbInpt [20]>   0.713      3.24 <dbl[…]> <NULL> FALSE 
    ##  5 (402630 4672470) <spwbInpt [20]>   8.75       3.56 <dbl[…]> <NULL> FALSE 
    ##  6 (402730 4672470) <aspwbInp [4]>  925.         3.56 <dbl[…]> <NULL> TRUE  
    ##  7 (402830 4672470) <aspwbInp [4]>  525.         3.56 <dbl[…]> <NULL> FALSE 
    ##  8 (402230 4672370) <spwbInpt [20]>   0.0672     3.56 <dbl[…]> <NULL> FALSE 
    ##  9 (402330 4672370) <spwbInpt [20]>   0.394      3.56 <dbl[…]> <NULL> FALSE 
    ## 10 (402430 4672370) <aspwbInp [4]>    1.04       3.56 <dbl[…]> <NULL> FALSE 
    ## # ℹ 56 more rows
    ## # ℹ 4 more variables: channel <lgl>, target_outlet <int>, outlet_backlog <dbl>,
    ## #   subwatershed <int>
…
