…
Here we load a small example watershed included with the package, that
can be used to understand the inputs required:

``` r
data("example_watershed_burnin")
example_watershed_burnin
```

    ## Simple feature collection with 66 features and 15 fields
    ## Geometry type: POINT
    ## Dimension:     XY
    ## Bounding box:  xmin: 401430 ymin: 4671870 xmax: 402830 ymax: 4672570
    ## Projected CRS: WGS 84 / UTM zone 31N
    ## # A tibble: 66 × 16
    ##            geometry    id elevation slope aspect land_cover_type
    ##         <POINT [m]> <int>     <dbl> <dbl>  <dbl> <chr>          
    ##  1 (402630 4672570)     1      1162 11.3   79.2  wildland       
    ##  2 (402330 4672470)     2      1214 12.4   98.7  agriculture    
    ##  3 (402430 4672470)     3      1197 10.4  102.   wildland       
    ##  4 (402530 4672470)     4      1180  8.12  83.3  wildland       
    ##  5 (402630 4672470)     5      1164 13.9   96.8  wildland       
    ##  6 (402730 4672470)     6      1146 11.2    8.47 agriculture    
    ##  7 (402830 4672470)     7      1153  9.26 356.   agriculture    
    ##  8 (402230 4672370)     8      1237 14.5   75.1  wildland       
    ##  9 (402330 4672370)     9      1213 13.2   78.7  wildland       
    ## 10 (402430 4672370)    10      1198  8.56  75.6  agriculture    
    ## # ℹ 56 more rows
    ## # ℹ 10 more variables: forest <list>, soil <list>, state <list>,
    ## #   depth_to_bedrock <dbl>, bedrock_conductivity <dbl>, bedrock_porosity <dbl>,
    ## #   snowpack <dbl>, aquifer <dbl>, crop_factor <dbl>, outlet_backlog <dbl>
…
