Landscape variables — extract_variables • medfateland
…
# Load data and species parameters from medfate
data(example_ifn)
data(SpParamsMED)
  
# Calculate basal area and leaf area index
# for all forest stands
extract_variables(example_ifn, vars = c("basal_area", "leaf_area_index"),
                  SpParams = SpParamsMED)
#> Simple feature collection with 100 features and 2 fields
#> Geometry type: POINT
#> Dimension:     XY
#> Bounding box:  xmin: 1.817095 ymin: 41.93301 xmax: 2.142956 ymax: 41.99881
#> Geodetic CRS:  WGS 84
#> # A tibble: 100 × 3
#>               geometry basal_area leaf_area_index
#>            <POINT [°]>      <dbl>           <dbl>
#>  1 (2.130641 41.99872)      13.9            5.29 
#>  2 (2.142714 41.99881)      15.7            2.91 
#>  3 (1.828998 41.98704)       0              0.833
#>  4 (1.841068 41.98716)       0              3.03 
#>  5 (1.853138 41.98728)       0              1.79 
#>  6 (1.901418 41.98775)       0              2.76 
#>  7 (1.937629 41.98809)      19.7            5.88 
#>  8  (1.949699 41.9882)       9.91           3.45 
#>  9  (1.96177 41.98831)       0              2.41 
#> 10  (1.97384 41.98842)      19.8            3.75 
#> # ℹ 90 more rows
…
