Preparing inputs II: arbitrary locations • medfateland
…
## ℹ Extracting topography

## ✔ Extracting topography [7.2s]

## 

y_0

## Simple feature collection with 2573 features and 4 fields
## Geometry type: POINT
## Dimension:     XY
## Bounding box:  xmin: 445022.4 ymin: 4668453 xmax: 459751.3 ymax: 4678387
## Projected CRS: ETRS89 / UTM zone 31N
## # A tibble: 2,573 × 5
##              geometry    id elevation slope aspect
##           <POINT [m]> <int>     <dbl> <dbl>  <dbl>
##  1 (449799.3 4678387)     1      900.  24.5   164.
##  2 (449998.3 4678387)     2      901.  27.5   155.
##  3 (450197.4 4678387)     3      880.  23.2   146.
##  4 (450396.4 4678387)     4      843.  27.9   201.
##  5 (450595.5 4678387)     5      878.  16.9   158.
##  6 (450794.5 4678387)     6      860.  22.4   188.
##  7 (449401.2 4678189)     7      995.  20.9   180.
##  8 (449600.3 4678189)     8      938.  30.8   107.
##  9 (449799.3 4678189)     9      838.  19.6   140.
## 10 (449998.3 4678189)    10      831.  27.3   101.
## # ℹ 2,563 more rows
…
y_1 <- add_land_cover(y_0, 
                      land_cover_map = lcm, 
                      wildland = wildland, 
                      agriculture = agriculture, 
                      rock = rock, 
                      artificial = artificial, 
                      water = water, progress = FALSE)
y_1

## Simple feature collection with 2573 features and 5 fields
## Geometry type: POINT
## Dimension:     XY
## Bounding box:  xmin: 445022.4 ymin: 4668453 xmax: 459751.3 ymax: 4678387
## Projected CRS: ETRS89 / UTM zone 31N
## # A tibble: 2,573 × 6
##              geometry    id elevation slope aspect land_cover_type
##           <POINT [m]> <int>     <dbl> <dbl>  <dbl> <chr>          
##  1 (449799.3 4678387)     1      900.  24.5   164. wildland       
##  2 (449998.3 4678387)     2      901.  27.5   155. wildland       
##  3 (450197.4 4678387)     3      880.  23.2   146. wildland       
##  4 (450396.4 4678387)     4      843.  27.9   201. wildland       
##  5 (450595.5 4678387)     5      878.  16.9   158. wildland       
##  6 (450794.5 4678387)     6      860.  22.4   188. wildland       
##  7 (449401.2 4678189)     7      995.  20.9   180. wildland       
##  8 (449600.3 4678189)     8      938.  30.8   107. wildland       
##  9 (449799.3 4678189)     9      838.  19.6   140. wildland       
## 10 (449998.3 4678189)    10      831.  27.3   101. wildland       
## # ℹ 2,563 more rows
…
nfi_path <- "/home/miquel/OneDrive/mcaceres_work/model_initialisation/medfate_initialisation/IFN2medfate/"
sf_nfi <- readRDS(paste0(nfi_path, "data/SpParamsMED/IFN4/Catalunya/IFN4_cat_final_ETRS89H31.rds"))
sf_nfi

## Simple feature collection with 5509 features and 14 fields
## Geometry type: POINT
## Dimension:     XY
## Bounding box:  xmin: 260943 ymin: 4491797 xmax: 518928 ymax: 4744883
## Projected CRS: ETRS89 / UTM zone 31N
## # A tibble: 5,509 × 15
##    Provincia Estadillo Clase Subclase IDPARCELA IDCLASE ID       id    elevation
##  * <chr>     <chr>     <chr> <chr>    <chr>     <chr>   <chr>    <chr>     <dbl>
##  1 08        0001      A     1        080001    A1      080001_… 0800…      1814
##  2 08        0002      A     1        080002    A1      080002_… 0800…      1797
##  3 08        0003      A     1        080003    A1      080003_… 0800…      1657
##  4 08        0004      A     1        080004    A1      080004_… 0800…      1403
##  5 08        0005      A     1        080005    A1      080005_… 0800…      1371
##  6 08        0006      A     1        080006    A1      080006_… 0800…      1683
##  7 08        0009      A     4        080009    A4      080009_… 0800…      1041
##  8 08        0014      A     1        080014    A1      080014_… 0800…      1538
##  9 08        0016      A     4        080016    A4      080016_… 0800…      1743
## 10 08        0020      A     1        080020    A1      080020_… 0800…      1404
## # ℹ 5,499 more rows
## # ℹ 6 more variables: slope <dbl>, aspect <dbl>, soil <list>, forest <list>,
## #   forest_allrecords <named list>, geom <POINT [m]>
…
The resulting sf has an extra column named
forest:

y_2

## Simple feature collection with 2573 features and 6 fields
## Geometry type: POINT
## Dimension:     XY
## Bounding box:  xmin: 445022.4 ymin: 4668453 xmax: 459751.3 ymax: 4678387
## Projected CRS: ETRS89 / UTM zone 31N
## # A tibble: 2,573 × 7
##              geometry    id elevation slope aspect land_cover_type
##           <POINT [m]> <int>     <dbl> <dbl>  <dbl> <chr>          
##  1 (449799.3 4678387)     1      900.  24.5   164. wildland       
##  2 (449998.3 4678387)     2      901.  27.5   155. wildland       
##  3 (450197.4 4678387)     3      880.  23.2   146. wildland       
##  4 (450396.4 4678387)     4      843.  27.9   201. wildland       
##  5 (450595.5 4678387)     5      878.  16.9   158. wildland       
##  6 (450794.5 4678387)     6      860.  22.4   188. wildland       
##  7 (449401.2 4678189)     7      995.  20.9   180. wildland       
##  8 (449600.3 4678189)     8      938.  30.8   107. wildland       
##  9 (449799.3 4678189)     9      838.  19.6   140. wildland       
## 10 (449998.3 4678189)    10      831.  27.3   101. wildland       
## # ℹ 2,563 more rows
## # ℹ 1 more variable: forest <list>
…
In this case we use a database of 575 shrubland inventory plots in
Catalonia described in Casals et
al. (2023):

sfi_path <- "/home/miquel/OneDrive/mcaceres_work/model_initialisation/medfate_initialisation/Shrublands/Combuscat/"
sf_sfi <- readRDS(paste0(sfi_path, "Products/Combuscat_final.rds"))
sf_sfi

## Simple feature collection with 546 features and 6 fields
## Geometry type: POINT
## Dimension:     XY
## Bounding box:  xmin: 267500 ymin: 4495400 xmax: 519300 ymax: 4736800
## Projected CRS: ETRS89 / UTM zone 31N
## # A tibble: 546 × 7
##                geom    id elevation slope aspect soil         forest      
##         <POINT [m]> <dbl>     <dbl> <dbl>  <dbl> <list>       <named list>
##  1 (345200 4574000)     5     619.  11.3     105 <df [4 × 6]> <forest [4]>
##  2 (368600 4582600)     7     695.   1.15      5 <df [4 × 6]> <forest [4]>
##  3 (362800 4586000)    24     533.   8.53    255 <df [4 × 6]> <forest [4]>
##  4 (366000 4567200)    25     274.  16.7     235 <df [4 × 6]> <forest [4]>
##  5 (349500 4576800)    29     536.  11.3      70 <df [4 × 6]> <forest [4]>
##  6 (346400 4574000)    38     707.   0       110 <df [4 × 6]> <forest [4]>
##  7 (498000 4687400)   107      73.0 14.0     340 <df [4 × 6]> <forest [4]>
##  8 (389500 4571800)   315     378.   6.84     63 <df [4 × 6]> <forest [4]>
##  9 (390200 4571400)   318     367.   8.53     12 <df [4 × 6]> <forest [4]>
## 10 (394400 4572800)   330     200.   0         0 <df [4 × 6]> <forest [4]>
## # ℹ 536 more rows
…
soilgrids_path = paste0(dataset_path,"Soils/Sources/Global/SoilGrids/Spain/")
y_6 <- add_soilgrids(y_5, soilgrids_path = soilgrids_path, progress = FALSE)

And the result has an extra column soil:

y_6

## Simple feature collection with 2573 features and 7 fields
## Geometry type: POINT
## Dimension:     XY
## Bounding box:  xmin: 445022.4 ymin: 4668453 xmax: 459751.3 ymax: 4678387
## Projected CRS: ETRS89 / UTM zone 31N
## # A tibble: 2,573 × 8
##              geometry    id elevation slope aspect land_cover_type
##           <POINT [m]> <int>     <dbl> <dbl>  <dbl> <chr>          
##  1 (449799.3 4678387)     1      900.  24.5   164. wildland       
##  2 (449998.3 4678387)     2      901.  27.5   155. wildland       
##  3 (450197.4 4678387)     3      880.  23.2   146. wildland       
##  4 (450396.4 4678387)     4      843.  27.9   201. wildland       
##  5 (450595.5 4678387)     5      878.  16.9   158. wildland       
##  6 (450794.5 4678387)     6      860.  22.4   188. wildland       
##  7 (449401.2 4678189)     7      995.  20.9   180. wildland       
##  8 (449600.3 4678189)     8      938.  30.8   107. wildland       
##  9 (449799.3 4678189)     9      838.  19.6   140. wildland       
## 10 (449998.3 4678189)    10      831.  27.3   101. wildland       
## # ℹ 2,563 more rows
## # ℹ 2 more variables: forest <list>, soil <list>
…
