…
    ## ✔ Extracting topography from 'dem' [13.3s]

    ## 

``` r
y_0
```

    ## Simple feature collection with 2573 features and 4 fields
    ## Geometry type: POINT
    ## Dimension:     XY
    ## Bounding box:  xmin: 445022.4 ymin: 4668453 xmax: 459751.3 ymax: 4678387
    ## Projected CRS: ETRS89 / UTM zone 31N
    ## # A tibble: 2,573 × 5
    ##              geometry    id elevation slope aspect
    ##           <POINT [m]> <int>     <dbl> <dbl>  <dbl>
    ##  1 (449799.3 4678387)     1      900.  24.5   164.
    ##  2 (449998.3 4678387)     2      901.  27.5   155.
    ##  3 (450197.4 4678387)     3      880.  23.2   146.
    ##  4 (450396.4 4678387)     4      843.  27.9   201.
    ##  5 (450595.5 4678387)     5      878.  16.9   158.
    ##  6 (450794.5 4678387)     6      860.  22.4   188.
    ##  7 (449401.2 4678189)     7      995.  20.9   180.
    ##  8 (449600.3 4678189)     8      938.  30.8   107.
    ##  9 (449799.3 4678189)     9      838.  19.6   140.
    ## 10 (449998.3 4678189)    10      831.  27.3   101.
    ## # ℹ 2,563 more rows
…
    ## Simple feature collection with 2573 features and 5 fields
    ## Geometry type: POINT
    ## Dimension:     XY
    ## Bounding box:  xmin: 445022.4 ymin: 4668453 xmax: 459751.3 ymax: 4678387
    ## Projected CRS: ETRS89 / UTM zone 31N
    ## # A tibble: 2,573 × 6
    ##              geometry    id elevation slope aspect land_cover_type
    ##           <POINT [m]> <int>     <dbl> <dbl>  <dbl> <chr>          
    ##  1 (449799.3 4678387)     1      900.  24.5   164. wildland       
    ##  2 (449998.3 4678387)     2      901.  27.5   155. wildland       
    ##  3 (450197.4 4678387)     3      880.  23.2   146. wildland       
    ##  4 (450396.4 4678387)     4      843.  27.9   201. wildland       
    ##  5 (450595.5 4678387)     5      878.  16.9   158. wildland       
    ##  6 (450794.5 4678387)     6      860.  22.4   188. wildland       
    ##  7 (449401.2 4678189)     7      995.  20.9   180. wildland       
    ##  8 (449600.3 4678189)     8      938.  30.8   107. wildland       
    ##  9 (449799.3 4678189)     9      838.  19.6   140. wildland       
    ## 10 (449998.3 4678189)    10      831.  27.3   101. wildland       
    ## # ℹ 2,563 more rows
…
``` r
nfi_path <- "/home/miquel/OneDrive/mcaceres_work/model_initialisation/medfate_initialisation/IFN2medfate/"
sf_nfi <- readRDS(paste0(nfi_path, "data/SpParamsES/IFN4/soilmod/IFN4_17_soilmod_WGS84.rds"))
sf_nfi
```

    ## Simple feature collection with 1455 features and 11 fields
    ## Geometry type: POINT
    ## Dimension:     XY
    ## Bounding box:  xmin: 1.745984 ymin: 41.66668 xmax: 3.22972 ymax: 42.4912
    ## Geodetic CRS:  WGS 84
    ## # A tibble: 1,455 × 12
    ##    id                       geometry  year plot  country version elevation
    ##    <chr>                 <POINT [°]> <int> <chr> <chr>   <chr>       <dbl>
    ##  1 17_0002_xx_A… (1.806511 42.48015)  2014 0002  ES      IFN4        2385.
    ##  2 17_0003_xx_x… (1.781808 42.47165)  2014 0003  ES      IFN4        2437.
    ##  3 17_0004_NN_A… (1.794464 42.47143)  2014 0004  ES      IFN4        2251.
    ##  4 17_0005_NN_A… (1.745984 42.46184)  2015 0005  ES      IFN4        2130.
    ##  5 17_0009_NN_A… (1.806915 42.46276)  2014 0009  ES      IFN4        2202.
    ##  6 17_0010_NN_A… (1.758323 42.45355)  2015 0010  ES      IFN4        1793.
    ##  7 17_0011_NN_A… (1.807265 42.45326)  2014 0011  ES      IFN4        2224.
    ##  8 17_0016_NN_A…  (1.77003 42.43449)  2014 0016  ES      IFN4        1838.
    ##  9 17_0017_NN_A… (1.820261 42.47165)  2015 0017  ES      IFN4        2064.
    ## 10 17_0022_NN_A…  (1.85651 42.46105)  2014 0022  ES      IFN4        1776.
    ## # ℹ 1,445 more rows
    ## # ℹ 5 more variables: forest <list>, forest_unfiltered <list>, slope <dbl>,
    ## #   aspect <dbl>, soil <list>
…
The resulting `sf` has an extra column named `forest`:

``` r
y_2
```

    ## Simple feature collection with 2573 features and 6 fields
    ## Geometry type: POINT
    ## Dimension:     XY
    ## Bounding box:  xmin: 445022.4 ymin: 4668453 xmax: 459751.3 ymax: 4678387
    ## Projected CRS: ETRS89 / UTM zone 31N
    ## # A tibble: 2,573 × 7
    ##              geometry    id elevation slope aspect land_cover_type
    ##           <POINT [m]> <int>     <dbl> <dbl>  <dbl> <chr>          
    ##  1 (449799.3 4678387)     1      900.  24.5   164. wildland       
    ##  2 (449998.3 4678387)     2      901.  27.5   155. wildland       
    ##  3 (450197.4 4678387)     3      880.  23.2   146. wildland       
    ##  4 (450396.4 4678387)     4      843.  27.9   201. wildland       
    ##  5 (450595.5 4678387)     5      878.  16.9   158. wildland       
    ##  6 (450794.5 4678387)     6      860.  22.4   188. wildland       
    ##  7 (449401.2 4678189)     7      995.  20.9   180. wildland       
    ##  8 (449600.3 4678189)     8      938.  30.8   107. wildland       
    ##  9 (449799.3 4678189)     9      838.  19.6   140. wildland       
    ## 10 (449998.3 4678189)    10      831.  27.3   101. wildland       
    ## # ℹ 2,563 more rows
    ## # ℹ 1 more variable: forest <list>
…
``` r
sfi_path <- "/home/miquel/OneDrive/mcaceres_work/model_initialisation/medfate_initialisation/Shrublands/COMBUSCAT2medfate/"
sf_sfi <- readRDS(paste0(sfi_path, "data/sf_combuscat.rds"))
sf_sfi
```

    ## Simple feature collection with 546 features and 6 fields
    ## Geometry type: POINT
    ## Dimension:     XY
    ## Bounding box:  xmin: 267500 ymin: 4495400 xmax: 519300 ymax: 4736800
    ## Projected CRS: ETRS89 / UTM zone 31N
    ## # A tibble: 546 × 7
    ##       id elevation slope aspect         geometry forest       soil        
    ##  * <dbl>     <dbl> <dbl>  <dbl>      <POINT [m]> <list>       <list>      
    ##  1     5     619.  11.3     105 (345200 4574000) <forest [5]> <df [6 × 7]>
    ##  2     7     695.   1.15      5 (368600 4582600) <forest [5]> <df [6 × 7]>
    ##  3    24     533.   8.53    255 (362800 4586000) <forest [5]> <df [6 × 7]>
    ##  4    25     274.  16.7     235 (366000 4567200) <forest [5]> <df [6 × 7]>
    ##  5    29     536.  11.3      70 (349500 4576800) <forest [5]> <df [6 × 7]>
    ##  6    38     707.   0       110 (346400 4574000) <forest [5]> <df [6 × 7]>
    ##  7   107      73.0 14.0     340 (498000 4687400) <forest [5]> <df [6 × 7]>
    ##  8   315     378.   6.84     63 (389500 4571800) <forest [5]> <df [6 × 7]>
    ##  9   318     367.   8.53     12 (390200 4571400) <forest [5]> <df [6 × 7]>
    ## 10   330     200.   0         0 (394400 4572800) <forest [5]> <df [6 × 7]>
    ## # ℹ 536 more rows
…
And the result has an extra column `soil`:

``` r
y_6
```

    ## Simple feature collection with 2573 features and 7 fields
    ## Geometry type: POINT
    ## Dimension:     XY
    ## Bounding box:  xmin: 445022.4 ymin: 4668453 xmax: 459751.3 ymax: 4678387
    ## Projected CRS: ETRS89 / UTM zone 31N
    ## # A tibble: 2,573 × 8
    ##              geometry    id elevation slope aspect land_cover_type
    ##           <POINT [m]> <int>     <dbl> <dbl>  <dbl> <chr>          
    ##  1 (449799.3 4678387)     1      900.  24.5   164. wildland       
    ##  2 (449998.3 4678387)     2      901.  27.5   155. wildland       
    ##  3 (450197.4 4678387)     3      880.  23.2   146. wildland       
    ##  4 (450396.4 4678387)     4      843.  27.9   201. wildland       
    ##  5 (450595.5 4678387)     5      878.  16.9   158. wildland       
    ##  6 (450794.5 4678387)     6      860.  22.4   188. wildland       
    ##  7 (449401.2 4678189)     7      995.  20.9   180. wildland       
    ##  8 (449600.3 4678189)     8      938.  30.8   107. wildland       
    ##  9 (449799.3 4678189)     9      838.  19.6   140. wildland       
    ## 10 (449998.3 4678189)    10      831.  27.3   101. wildland       
    ## # ℹ 2,563 more rows
    ## # ℹ 2 more variables: forest <list>, soil <list>
…
