Preparing inputs I: forest inventory plots • medfateland
…
Example dataset

To illustrate this procedure, we first load an example data set given
in the forestables package for the Spanish national
forest inventory:

data("ifn_output_example")
ifn_output_example

## # A tibble: 8,997 × 24
##    id_unique_code    year plot  coordx coordy coord_sys   crs  elev aspect slope
##    <chr>            <int> <chr>  <dbl>  <dbl> <chr>     <dbl> <dbl>  <dbl> <dbl>
##  1 08_0001_NN_A1_A1  1990 0001  402000 4.68e6 ED50      23031  1900     NA    NA
##  2 08_0002_NN_A1_A1  1990 0002  400000 4.68e6 ED50      23031  1700     NA    NA
##  3 08_0003_NN_A1_A1  1990 0003  401000 4.68e6 ED50      23031  1700     NA    NA
##  4 08_0004_NN_A1_A1  1990 0004  402000 4.68e6 ED50      23031  1400     NA    NA
##  5 08_0005_NN_A1_A1  1990 0005  400000 4.68e6 ED50      23031  1300     NA    NA
##  6 08_0006_NN_A1_A1  1990 0006  397000 4.68e6 ED50      23031  1700     NA    NA
##  7 08_0007_NN_A1_xx  1990 0007  399000 4.68e6 ED50      23031  1400     NA    NA
##  8 08_0008_NN_A1_xx  1990 0008  401000 4.68e6 ED50      23031  1100     NA    NA
##  9 08_0009_NN_A1_xx  1990 0009  402000 4.68e6 ED50      23031  1100     52    NA
## 10 08_0010_NN_A1_xx  1990 0010  394000 4.68e6 ED50      23031  1500     NA    NA
## # ℹ 8,987 more rows
## # ℹ 14 more variables: country <chr>, version <chr>, class <chr>,
## #   subclass <chr>, province_code <chr>, province_name_original <chr>,
## #   ca_name_original <chr>, sheet_ntm <chr>, huso <dbl>, slope_mean <chr>,
## #   type <int>, tree <list>, understory <list>, regen <list>
…
table(ifn_output_example$version)

## 
## ifn2 ifn3 ifn4 
## 3542 3769 1686

Here we will use only data from the last survey (IFN4):

ifn4_example <- ifn_output_example |>
  dplyr::filter(version == "ifn4")
ifn4_example

## # A tibble: 1,686 × 24
##    id_unique_code    year plot  coordx coordy coord_sys   crs  elev aspect slope
##    <chr>            <int> <chr>  <dbl>  <dbl> <chr>     <dbl> <dbl>  <dbl> <dbl>
##  1 08_0001_NN_A1_A1  2015 0001  401922 4.68e6 ED50      23031    NA   202.    40
##  2 08_0002_NN_A1_A1  2014 0002  399895 4.68e6 ED50      23031    NA   342     40
##  3 08_0003_NN_A1_A1  2015 0003  400898 4.68e6 ED50      23031    NA    99     40
##  4 08_0004_NN_A1_A1  2014 0004  401903 4.68e6 ED50      23031    NA   292.    40
##  5 08_0005_NN_A1_A1  2014 0005  399917 4.68e6 ED50      23031    NA    99     40
##  6 08_0006_NN_A1_A1  2014 0006  396931 4.68e6 ED50      23031    NA   351     40
##  7 08_0009_xx_xx_A4  2016 0009  401899 4.68e6 ED50      23031    NA    90     40
##  8 08_0014_NN_A1_A1  2015 0014  397927 4.68e6 ED50      23031    NA   234     40
##  9 08_0016_xx_xx_A4  2014 0016  392906 4.68e6 ED50      23031    NA   346.    40
## 10 08_0020_NN_A1_A1  2015 0020  397842 4.68e6 ED50      23031    NA    36     40
## # ℹ 1,676 more rows
## # ℹ 14 more variables: country <chr>, version <chr>, class <chr>,
## #   subclass <chr>, province_code <chr>, province_name_original <chr>,
## #   ca_name_original <chr>, sheet_ntm <chr>, huso <dbl>, slope_mean <chr>,
## #   type <int>, tree <list>, understory <list>, regen <list>
…
Function parse_forestable() allows parsing a data frame
(or sf) issued from package forestables and reshaping
it for medfateland. In this example we will only
transform the first 100 rows:

y_1 <- parse_forestable(ifn4_example[1:100,])
y_1

## Simple feature collection with 100 features and 9 fields
## Geometry type: POINT
## Dimension:     XY
## Bounding box:  xmin: 1.689588 ymin: 42.14464 xmax: 2.041199 ymax: 42.29967
## Geodetic CRS:  WGS 84
## # A tibble: 100 × 10
##    id                 geometry  year plot  country version elevation slope
##    <chr>           <POINT [°]> <int> <chr> <chr>   <chr>       <dbl> <dbl>
##  1 08_000… (1.809049 42.29746)  2015 0001  ES      ifn4           NA    40
##  2 08_000… (1.784615 42.28933)  2014 0002  ES      ifn4           NA    40
##  3 08_000… (1.796778 42.28951)  2015 0003  ES      ifn4           NA    40
##  4 08_000… (1.808973 42.28922)  2014 0004  ES      ifn4           NA    40
##  5 08_000…  (1.78507 42.27957)  2014 0005  ES      ifn4           NA    40
##  6 08_000… (1.749026 42.27098)  2014 0006  ES      ifn4           NA    40
##  7 08_000…  (1.809255 42.2717)  2016 0009  ES      ifn4           NA    40
##  8 08_001… (1.761288 42.26155)  2015 0014  ES      ifn4           NA    40
##  9 08_001… (1.700605 42.25216)  2014 0016  ES      ifn4           NA    40
## 10 08_002… (1.760416 42.25344)  2015 0020  ES      ifn4           NA    40
## # ℹ 90 more rows
## # ℹ 2 more variables: aspect <dbl>, forest <list>
…
