Landscape inputs • medfateland
…
## ✔ Extracting land cover [28ms]

## 

We can examine the result using:

y

## Simple feature collection with 66 features and 5 fields
## Geometry type: POINT
## Dimension:     XY
## Bounding box:  xmin: 401430 ymin: 4671870 xmax: 402830 ymax: 4672570
## Projected CRS: WGS 84 / UTM zone 31N
## # A tibble: 66 × 6
##            geometry    id elevation slope aspect land_cover_type
##         <POINT [m]> <int>     <dbl> <dbl>  <dbl> <chr>          
##  1 (402630 4672570)     1     1163.  9.09   38.2 wildland       
##  2 (402330 4672470)     2     1217.  2.93  109.  agriculture    
##  3 (402430 4672470)     3     1199. 19.3   131.  agriculture    
##  4 (402530 4672470)     4     1169. 21.2   123.  wildland       
##  5 (402630 4672470)     5     1146. 12.2   110.  wildland       
##  6 (402730 4672470)     6     1126.  9.69  131.  agriculture    
##  7 (402830 4672470)     7     1115.  6.01   88.2 agriculture    
##  8 (402230 4672370)     8     1225. 17.1   102.  wildland       
##  9 (402330 4672370)     9     1199. 14.2   133.  wildland       
## 10 (402430 4672370)    10     1178. 11.5    98.9 agriculture    
## # ℹ 56 more rows
…
We also load an sf object that contains coordinates and
forest objects corresponding to the Third Spanish Forest Inventory for
Catalonia:

nfi_path <- "/home/miquel/OneDrive/mcaceres_work/model_initialisation/medfate_initialisation/IFN/"
sf_nfi <- readRDS(paste0(nfi_path, "Products/IFN3/Catalunya/IFN3_cat_final_ETRS89H31.rds"))
sf_nfi

## Simple feature collection with 12180 features and 14 fields
## Geometry type: POINT
## Dimension:     XY
## Bounding box:  xmin: 260919 ymin: 4498773 xmax: 519906.3 ymax: 4746796
## Projected CRS: ETRS89 / UTM zone 31N
## # A tibble: 12,180 × 15
##    Provincia Estadillo Clase Subclase IDPARCELA IDCLASE ID       id    elevation
##  * <chr>     <chr>     <chr> <chr>    <chr>     <chr>   <chr>    <chr>     <dbl>
##  1 08        0001      A     1        080001    A1      080001_… 0800…      1826
##  2 08        0002      A     1        080002    A1      080002_… 0800…      1840
##  3 08        0003      A     1        080003    A1      080003_… 0800…      1672
##  4 08        0004      A     1        080004    A1      080004_… 0800…      1394
##  5 08        0005      A     1        080005    A1      080005_… 0800…      1371
##  6 08        0006      A     1        080006    A1      080006_… 0800…      1674
##  7 08        0007      A     1        080007    A1      080007_… 0800…      1426
##  8 08        0008      A     1        080008    A1      080008_… 0800…      1062
##  9 08        0009      A     1        080009    A1      080009_… 0800…      1024
## 10 08        0010      A     1        080010    A1      080010_… 0800…      1436
## # ℹ 12,170 more rows
## # ℹ 6 more variables: slope <dbl>, aspect <dbl>, soil <list>, forest <list>,
## #   forest_allrecords <named list>, geom <POINT [m]>
…
We can see the result with an extra column forest
here:

y

## Simple feature collection with 66 features and 6 fields
## Geometry type: POINT
## Dimension:     XY
## Bounding box:  xmin: 401430 ymin: 4671870 xmax: 402830 ymax: 4672570
## Projected CRS: WGS 84 / UTM zone 31N
## # A tibble: 66 × 7
##            geometry    id elevation slope aspect land_cover_type
##  *      <POINT [m]> <int>     <dbl> <dbl>  <dbl> <chr>          
##  1 (402630 4672570)     1     1163.  9.09   38.2 wildland       
##  2 (402330 4672470)     2     1217.  2.93  109.  agriculture    
##  3 (402430 4672470)     3     1199. 19.3   131.  agriculture    
##  4 (402530 4672470)     4     1169. 21.2   123.  wildland       
##  5 (402630 4672470)     5     1146. 12.2   110.  wildland       
##  6 (402730 4672470)     6     1126.  9.69  131.  agriculture    
##  7 (402830 4672470)     7     1115.  6.01   88.2 agriculture    
##  8 (402230 4672370)     8     1225. 17.1   102.  wildland       
##  9 (402330 4672370)     9     1199. 14.2   133.  wildland       
## 10 (402430 4672370)    10     1178. 11.5    98.9 agriculture    
## # ℹ 56 more rows
## # ℹ 1 more variable: forest <list>
…
## ✔ Extracting 65 wildland/agriculture points from SoilGrids raster layers: [329m…

## 

And the result has an extra column soil:

y

## Simple feature collection with 66 features and 7 fields
## Geometry type: POINT
## Dimension:     XY
## Bounding box:  xmin: 401430 ymin: 4671870 xmax: 402830 ymax: 4672570
## Projected CRS: WGS 84 / UTM zone 31N
## # A tibble: 66 × 8
##            geometry    id elevation slope aspect land_cover_type
##  *      <POINT [m]> <int>     <dbl> <dbl>  <dbl> <chr>          
##  1 (402630 4672570)     1     1163.  9.09   38.2 wildland       
##  2 (402330 4672470)     2     1217.  2.93  109.  agriculture    
##  3 (402430 4672470)     3     1199. 19.3   131.  agriculture    
##  4 (402530 4672470)     4     1169. 21.2   123.  wildland       
##  5 (402630 4672470)     5     1146. 12.2   110.  wildland       
##  6 (402730 4672470)     6     1126.  9.69  131.  agriculture    
##  7 (402830 4672470)     7     1115.  6.01   88.2 agriculture    
##  8 (402230 4672370)     8     1225. 17.1   102.  wildland       
##  9 (402330 4672370)     9     1199. 14.2   133.  wildland       
## 10 (402430 4672370)    10     1178. 11.5    98.9 agriculture    
## # ℹ 56 more rows
## # ℹ 2 more variables: forest <list>, soil <list>
…
