Landscape water balance • medfateland
…
data("examplepointslandscape")

We transform the data set to class sf because sp
objects are deprecated from ver. 1.0.0 on.

y = sp_to_sf(examplepointslandscape)
y

## Simple feature collection with 100 features and 11 fields
## Geometry type: POINT
## Dimension:     XY
## Bounding box:  xmin: 402000 ymin: 4640000 xmax: 429000 ymax: 4646000
## Projected CRS: ETRS89 / UTM zone 31N
## # A tibble: 100 × 12
##            geometry id    elevation slope aspect land_cover_type forest   soil  
##         <POINT [m]> <chr>     <dbl> <dbl>  <dbl> <chr>           <list>   <list>
##  1 (411000 4646000) 81065       516  9.94   92.7 wildland        <forest> <soil>
##  2 (412000 4646000) 81066       537 13.7   115.  wildland        <forest> <soil>
##  3 (413000 4646000) 81067       578 23.3   152.  wildland        <forest> <soil>
##  4 (415000 4646000) 81068       615 12.7   360.  wildland        <forest> <soil>
##  5 (416000 4646000) 81069       644 22.5   186.  wildland        <forest> <soil>
##  6 (423000 4646000) 81070       520  4.04  225.  wildland        <forest> <soil>
##  7 (426000 4646000) 81073       608 12.2   337.  wildland        <forest> <soil>
##  8 (428000 4646000) 81075       745  8.06  332.  wildland        <forest> <soil>
##  9 (402000 4645000) 81076       527 14.4   245.  wildland        <forest> <soil>
## 10 (404000 4645000) 81077       483 26.0    36.7 wildland        <forest> <soil>
## # … with 90 more rows, and 4 more variables: state <list>,
## #   represented_area <lgl>, management_unit <lgl>, management_arguments <list>
…
