Management scenarios • medfateland
…
All simulations in medfateland an
sf object containing information of the topography,
soils and vegetation of a set of target forest stands. Here we begin by
loading the example data set of 100 forest stands distributed on points
in the landscape:

data("example_ifn")
example_ifn

## Simple feature collection with 100 features and 7 fields
## Geometry type: POINT
## Dimension:     XY
## Bounding box:  xmin: 1.817095 ymin: 41.93301 xmax: 2.142956 ymax: 41.99881
## Geodetic CRS:  WGS 84
## # A tibble: 100 × 8
##                   geom id        elevation slope aspect land_cover_type soil  
##  *         <POINT [°]> <chr>         <dbl> <dbl>  <dbl> <chr>           <list>
##  1 (2.130641 41.99872) 081015_A1       680  7.73  281.  wildland        <df>  
##  2 (2.142714 41.99881) 081016_A1       736 15.6   212.  wildland        <df>  
##  3 (1.828998 41.98704) 081018_A1       532 17.6   291.  wildland        <df>  
##  4 (1.841068 41.98716) 081019_A1       581  4.79  174.  wildland        <df>  
##  5 (1.853138 41.98728) 081020_A1       613  4.76   36.9 wildland        <df>  
##  6 (1.901418 41.98775) 081021_A1       617 10.6   253.  wildland        <df>  
##  7 (1.937629 41.98809) 081022_A1       622 20.6   360   wildland        <df>  
##  8  (1.949699 41.9882) 081023_A1       687 14.4   324.  wildland        <df>  
##  9  (1.96177 41.98831) 081024_A1       597 11.8    16.3 wildland        <df>  
## 10  (1.97384 41.98842) 081025_A1       577 14.6   348.  wildland        <df>  
## # ℹ 90 more rows
## # ℹ 1 more variable: forest <list>
…
