Preparing inputs • medfateland
…
## ✔ Extracting land cover [1s]

## 

We can examine the result using:

y_1

## Simple feature collection with 2550 features and 5 fields
## Geometry type: POINT
## Dimension:     XY
## Bounding box:  xmin: 445022.8 ymin: 4668454 xmax: 459822.8 ymax: 4678454
## Projected CRS: ETRS89 / UTM zone 31N
## # A tibble: 2,550 × 6
##              geometry    id elevation slope aspect land_cover_type
##           <POINT [m]> <int>     <dbl> <dbl>  <dbl> <chr>          
##  1 (450222.8 4678454)     1      886.  9.62   66.7 wildland       
##  2 (449422.8 4678254)     2     1000.  6.86   45.2 wildland       
##  3 (449622.8 4678254)     3      932. 32.8   134.  wildland       
##  4 (449822.8 4678254)     4      853. 20.8   164.  wildland       
##  5 (450022.8 4678254)     5      832. 22.6   154.  wildland       
##  6 (450222.8 4678254)     6      811. 29.6   137.  wildland       
##  7 (450422.8 4678254)     7      792. 30.7   195.  wildland       
##  8 (450622.8 4678254)     8      831. 21.4   146.  wildland       
##  9 (450822.8 4678254)     9      822. 27.6   234.  wildland       
## 10 (451022.8 4678254)    10      846. 28.0   185.  wildland       
## # ℹ 2,540 more rows
…
nfi_path <- "/home/miquel/OneDrive/mcaceres_work/model_initialisation/medfate_initialisation/IFN/"
sf_nfi <- readRDS(paste0(nfi_path, "Products/IFN4/Catalunya/IFN4_cat_final_ETRS89H31.rds"))
sf_nfi

## Simple feature collection with 5509 features and 14 fields
## Geometry type: POINT
## Dimension:     XY
## Bounding box:  xmin: 260943 ymin: 4491797 xmax: 518928 ymax: 4744883
## Projected CRS: ETRS89 / UTM zone 31N
## # A tibble: 5,509 × 15
##    Provincia Estadillo Clase Subclase IDPARCELA IDCLASE ID       id    elevation
##  * <chr>     <chr>     <chr> <chr>    <chr>     <chr>   <chr>    <chr>     <dbl>
##  1 08        0001      A     1        080001    A1      080001_… 0800…      1814
##  2 08        0002      A     1        080002    A1      080002_… 0800…      1797
##  3 08        0003      A     1        080003    A1      080003_… 0800…      1657
##  4 08        0004      A     1        080004    A1      080004_… 0800…      1403
##  5 08        0005      A     1        080005    A1      080005_… 0800…      1371
##  6 08        0006      A     1        080006    A1      080006_… 0800…      1683
##  7 08        0009      A     4        080009    A4      080009_… 0800…      1041
##  8 08        0014      A     1        080014    A1      080014_… 0800…      1538
##  9 08        0016      A     4        080016    A4      080016_… 0800…      1743
## 10 08        0020      A     1        080020    A1      080020_… 0800…      1404
## # ℹ 5,499 more rows
## # ℹ 6 more variables: slope <dbl>, aspect <dbl>, soil <list>, forest <list>,
## #   forest_allrecords <named list>, geom <POINT [m]>
…
The resulting sf has an extra column named
forest:

y_2

## Simple feature collection with 2550 features and 6 fields
## Geometry type: POINT
## Dimension:     XY
## Bounding box:  xmin: 445022.8 ymin: 4668454 xmax: 459822.8 ymax: 4678454
## Projected CRS: ETRS89 / UTM zone 31N
## # A tibble: 2,550 × 7
##              geometry    id elevation slope aspect land_cover_type
##  *        <POINT [m]> <int>     <dbl> <dbl>  <dbl> <chr>          
##  1 (450222.8 4678454)     1      886.  9.62   66.7 wildland       
##  2 (449422.8 4678254)     2     1000.  6.86   45.2 wildland       
##  3 (449622.8 4678254)     3      932. 32.8   134.  wildland       
##  4 (449822.8 4678254)     4      853. 20.8   164.  wildland       
##  5 (450022.8 4678254)     5      832. 22.6   154.  wildland       
##  6 (450222.8 4678254)     6      811. 29.6   137.  wildland       
##  7 (450422.8 4678254)     7      792. 30.7   195.  wildland       
##  8 (450622.8 4678254)     8      831. 21.4   146.  wildland       
##  9 (450822.8 4678254)     9      822. 27.6   234.  wildland       
## 10 (451022.8 4678254)    10      846. 28.0   185.  wildland       
## # ℹ 2,540 more rows
## # ℹ 1 more variable: forest <list>
…
## ℹ Checking for missing values in key parameters! Default 'sand' values assigned for 27 locations
## ℹ Checking for missing values in key parameters! Default 'bd' values assigned for 27 locations
## ℹ Checking for missing values in key parameters! Default 'rfc' values assigned for 27 locations
## ℹ Checking for missing values in key parameters✔ Checking for missing values in key parameters [2.1s]

And the result has an extra column soil:

y_5

## Simple feature collection with 2550 features and 7 fields
## Geometry type: POINT
## Dimension:     XY
## Bounding box:  xmin: 445022.8 ymin: 4668454 xmax: 459822.8 ymax: 4678454
## Projected CRS: ETRS89 / UTM zone 31N
## # A tibble: 2,550 × 8
##              geometry    id elevation slope aspect land_cover_type
##           <POINT [m]> <int>     <dbl> <dbl>  <dbl> <chr>          
##  1 (450222.8 4678454)     1      886.  9.62   66.7 wildland       
##  2 (449422.8 4678254)     2     1000.  6.86   45.2 wildland       
##  3 (449622.8 4678254)     3      932. 32.8   134.  wildland       
##  4 (449822.8 4678254)     4      853. 20.8   164.  wildland       
##  5 (450022.8 4678254)     5      832. 22.6   154.  wildland       
##  6 (450222.8 4678254)     6      811. 29.6   137.  wildland       
##  7 (450422.8 4678254)     7      792. 30.7   195.  wildland       
##  8 (450622.8 4678254)     8      831. 21.4   146.  wildland       
##  9 (450822.8 4678254)     9      822. 27.6   234.  wildland       
## 10 (451022.8 4678254)    10      846. 28.0   185.  wildland       
## # ℹ 2,540 more rows
## # ℹ 2 more variables: forest <list>, soil <list>
…
