Watershed simulations • medfateland
…
Input sf objects

Here we load a small example watershed included with the package,
that can be used to understand the inputs required:

data("example_watershed")
example_watershed

## Simple feature collection with 66 features and 13 fields
## Geometry type: POINT
## Dimension:     XY
## Bounding box:  xmin: 401430 ymin: 4671870 xmax: 402830 ymax: 4672570
## Projected CRS: WGS 84 / UTM zone 31N
## # A tibble: 66 × 14
##            geometry    id elevation slope aspect land_cover_type
##  *      <POINT [m]> <int>     <dbl> <dbl>  <dbl> <chr>          
##  1 (402630 4672570)     1      1162 11.3   79.2  wildland       
##  2 (402330 4672470)     2      1214 12.4   98.7  agriculture    
##  3 (402430 4672470)     3      1197 10.4  102.   wildland       
##  4 (402530 4672470)     4      1180  8.12  83.3  wildland       
##  5 (402630 4672470)     5      1164 13.9   96.8  wildland       
##  6 (402730 4672470)     6      1146 11.2    8.47 agriculture    
##  7 (402830 4672470)     7      1153  9.26 356.   agriculture    
##  8 (402230 4672370)     8      1237 14.5   75.1  wildland       
##  9 (402330 4672370)     9      1213 13.2   78.7  wildland       
## 10 (402430 4672370)    10      1198  8.56  75.6  agriculture    
## # ℹ 56 more rows
## # ℹ 8 more variables: forest <list>, soil <list>, state <list>,
## #   depth_to_bedrock <dbl>, bedrock_conductivity <dbl>, bedrock_porosity <dbl>,
## #   snowpack <dbl>, aquifer <dbl>
…
## ℹ Creating 65 state objects for model 'spwb'.

## ✔ Creating 65 state objects for model 'spwb'. [18ms]

## 

example_init

## Simple feature collection with 66 features and 14 fields
## Geometry type: POINT
## Dimension:     XY
## Bounding box:  xmin: 401430 ymin: 4671870 xmax: 402830 ymax: 4672570
## Projected CRS: WGS 84 / UTM zone 31N
## # A tibble: 66 × 15
##            geometry    id elevation slope aspect land_cover_type
##  *      <POINT [m]> <int>     <dbl> <dbl>  <dbl> <chr>          
##  1 (402630 4672570)     1      1162 11.3   79.2  wildland       
##  2 (402330 4672470)     2      1214 12.4   98.7  agriculture    
##  3 (402430 4672470)     3      1197 10.4  102.   wildland       
##  4 (402530 4672470)     4      1180  8.12  83.3  wildland       
##  5 (402630 4672470)     5      1164 13.9   96.8  wildland       
##  6 (402730 4672470)     6      1146 11.2    8.47 agriculture    
##  7 (402830 4672470)     7      1153  9.26 356.   agriculture    
##  8 (402230 4672370)     8      1237 14.5   75.1  wildland       
##  9 (402330 4672370)     9      1213 13.2   78.7  wildland       
## 10 (402430 4672370)    10      1198  8.56  75.6  agriculture    
## # ℹ 56 more rows
## # ℹ 9 more variables: forest <list>, soil <list>, state <list>,
## #   depth_to_bedrock <dbl>, bedrock_conductivity <dbl>, bedrock_porosity <dbl>,
## #   snowpack <dbl>, aquifer <dbl>, crop_factor <dbl>
…
## ℹ Creating 65 state objects for model 'spwb'.

## ✔ Creating 65 state objects for model 'spwb'. [6ms]

## 

example_simplified

## Simple feature collection with 66 features and 14 fields
## Geometry type: POINT
## Dimension:     XY
## Bounding box:  xmin: 401430 ymin: 4671870 xmax: 402830 ymax: 4672570
## Projected CRS: WGS 84 / UTM zone 31N
## # A tibble: 66 × 15
##            geometry    id elevation slope aspect land_cover_type
##  *      <POINT [m]> <int>     <dbl> <dbl>  <dbl> <chr>          
##  1 (402630 4672570)     1      1162 11.3   79.2  wildland       
##  2 (402330 4672470)     2      1214 12.4   98.7  agriculture    
##  3 (402430 4672470)     3      1197 10.4  102.   wildland       
##  4 (402530 4672470)     4      1180  8.12  83.3  wildland       
##  5 (402630 4672470)     5      1164 13.9   96.8  wildland       
##  6 (402730 4672470)     6      1146 11.2    8.47 agriculture    
##  7 (402830 4672470)     7      1153  9.26 356.   agriculture    
##  8 (402230 4672370)     8      1237 14.5   75.1  wildland       
##  9 (402330 4672370)     9      1213 13.2   78.7  wildland       
## 10 (402430 4672370)    10      1198  8.56  75.6  agriculture    
## # ℹ 56 more rows
## # ℹ 9 more variables: forest <list>, soil <list>, state <list>,
## #   depth_to_bedrock <dbl>, bedrock_conductivity <dbl>, bedrock_porosity <dbl>,
## #   snowpack <dbl>, aquifer <dbl>, crop_factor <dbl>
…
## [1] "watershed_control"      "sf"                     "watershed_balance"     
## [4] "watershed_soil_balance" "outlet_export_m3s"

Where sf is an object of class sf,
analogous to those of functions *_spatial():

res_ws1$sf

## Simple feature collection with 66 features and 6 fields
## Geometry type: POINT
## Dimension:     XY
## Bounding box:  xmin: 401430 ymin: 4671870 xmax: 402830 ymax: 4672570
## Projected CRS: WGS 84 / UTM zone 31N
## # A tibble: 66 × 7
##            geometry state           aquifer snowpack summary  result outlet
##         <POINT [m]> <list>            <dbl>    <dbl> <list>   <list> <lgl> 
##  1 (402630 4672570) <spwbInpt [18]>  0.0908     3.56 <dbl[…]> <NULL> FALSE 
##  2 (402330 4672470) <aspwbInp [4]>   0.127      3.56 <dbl[…]> <NULL> FALSE 
##  3 (402430 4672470) <spwbInpt [18]>  0.159      3.56 <dbl[…]> <NULL> FALSE 
##  4 (402530 4672470) <spwbInpt [18]>  0.192      2.54 <dbl[…]> <NULL> FALSE 
##  5 (402630 4672470) <spwbInpt [18]>  0.259      2.57 <dbl[…]> <NULL> FALSE 
##  6 (402730 4672470) <aspwbInp [4]>   1.33       3.56 <dbl[…]> <NULL> TRUE  
##  7 (402830 4672470) <aspwbInp [4]>   0.211      3.56 <dbl[…]> <NULL> FALSE 
##  8 (402230 4672370) <spwbInpt [18]>  0.145      2.53 <dbl[…]> <NULL> FALSE 
##  9 (402330 4672370) <spwbInpt [18]>  0.462      2.81 <dbl[…]> <NULL> FALSE 
## 10 (402430 4672370) <aspwbInp [4]>   0.661      3.56 <dbl[…]> <NULL> FALSE 
## # ℹ 56 more rows
…
